%YAML 1.1
%TAG !u! tag:unity3d.com,2011:
--- !u!1 &1687092359636180682
GameObject:
  m_ObjectHideFlags: 0
  m_CorrespondingSourceObject: {fileID: 0}
  m_PrefabInstance: {fileID: 0}
  m_PrefabAsset: {fileID: 0}
  serializedVersion: 6
  m_Component:
  - component: {fileID: 1687092359636180692}
  - component: {fileID: 1687092359636180683}
  m_Layer: 6
  m_Name: prefab_HerringFlockManager
  m_TagString: Untagged
  m_Icon: {fileID: -964228994112308473, guid: 0000000000000000d000000000000000, type: 0}
  m_NavMeshLayer: 0
  m_StaticEditorFlags: 0
  m_IsActive: 1
--- !u!4 &1687092359636180692
Transform:
  m_ObjectHideFlags: 0
  m_CorrespondingSourceObject: {fileID: 0}
  m_PrefabInstance: {fileID: 0}
  m_PrefabAsset: {fileID: 0}
  m_GameObject: {fileID: 1687092359636180682}
  m_LocalRotation: {x: 0, y: 0, z: 0, w: 1}
  m_LocalPosition: {x: 0, y: 0, z: 0}
  m_LocalScale: {x: 0.5, y: 0.5, z: 0.5}
  m_Children: []
  m_Father: {fileID: 0}
  m_RootOrder: 0
  m_LocalEulerAnglesHint: {x: 0, y: 0, z: 0}
--- !u!114 &1687092359636180683
MonoBehaviour:
  m_ObjectHideFlags: 0
  m_CorrespondingSourceObject: {fileID: 0}
  m_PrefabInstance: {fileID: 0}
  m_PrefabAsset: {fileID: 0}
  m_GameObject: {fileID: 1687092359636180682}
  m_Enabled: 1
  m_EditorHideFlags: 0
  m_Script: {fileID: 11500000, guid: fcba3adb03b83be4083de71a752c0404, type: 3}
  m_Name: 
  m_EditorClassIdentifier: 
  agentPrefab: {fileID: 6582580521002041903, guid: f501ddbf0ecc05a41bc0977edcf9e5bc, type: 3}
  size: 5
  spawnBounds: {x: 5, y: 3, z: 5}
  speed: {x: 1, y: 2}
  cohesionDistance: 0.75
  separationDistance: 6.98
  alignmentDistance: 1
  boundsDistance: 1
  obstacleDistance: 2
  cohesion: 2.09
  separation: 2.16
  alignment: 0.83
  bounds: 2.96
  avoidance: 100
